Breast Cancer Classification
…
Explore the data

Now that Ive loaded in the data, Im ready to explore it.

First, a few questions arose in my mind, including whether or not there were repeated entries for patients.

The following table counts the number of time each patient ID (patient_nbr) appears in the data. There seems to be one patient who has 40 encounters, and a bunch of patients who had over 20 encounters.

diabetic_clean %>%
  count(patient_nbr) %>%
  arrange(desc(n))

## # A tibble: 71,518 x 2
##    patient_nbr     n
##          <dbl> <int>
##  1    88785891    40
##  2    43140906    28
##  3     1660293    23
##  4    23199021    23
##  5    88227540    23
##  6    23643405    22
##  7    84428613    22
##  8    92709351    21
##  9    23398488    20
## 10    29903877    20
## #  with 71,508 more rows
…
